cpu.vcd
$date
	Wed Mar  4 00:40:47 2026
$end
$version
	Icarus Verilog
$end
$timescale
	1ps
$end
$scope module cpu_tb $end
$scope module uut $end
$var wire 1 ! clk $end
$var wire 32 " instr [31:0] $end
$var wire 32 # rs2_data [31:0] $end
$var wire 5 $ rs2 [4:0] $end
$var wire 32 % rs1_data [31:0] $end
$var wire 5 & rs1 [4:0] $end
$var wire 1 ' reg_write $end
$var wire 5 ( rd [4:0] $end
$var wire 1 ) mem_write $end
$var wire 1 * mem_to_reg $end
$var wire 1 + mem_read $end
$var wire 32 , mem_data [31:0] $end
$var wire 32 - imm_s [31:0] $end
$var wire 32 . imm_i [31:0] $end
$var wire 32 / imm_b [31:0] $end
$var wire 32 0 imm [31:0] $end
$var wire 1 1 branch $end
$var wire 1 2 alu_src $end
$var wire 32 3 alu_result [31:0] $end
$var wire 4 4 alu_op [3:0] $end
$var wire 32 5 alu_b [31:0] $end
$var reg 32 6 pc [31:0] $end
$scope module alu_unit $end
$var wire 32 7 b [31:0] $end
$var wire 4 8 op [3:0] $end
$var wire 32 9 a [31:0] $end
$var reg 32 : result [31:0] $end
$upscope $end
$scope module dec $end
$var wire 32 ; instr [31:0] $end
$var wire 7 < opcode [6:0] $end
$var wire 7 = funct7 [6:0] $end
$var wire 3 > funct3 [2:0] $end
$var reg 4 ? alu_op [3:0] $end
$var reg 1 2 alu_src $end
$var reg 1 1 branch $end
$var reg 1 + mem_read $end
$var reg 1 * mem_to_reg $end
$var reg 1 ) mem_write $end
$var reg 1 ' reg_write $end
$upscope $end
$scope module rf $end
$var wire 1 ! clk $end
$var wire 5 @ rd [4:0] $end
$var wire 5 A rs1 [4:0] $end
$var wire 5 B rs2 [4:0] $end
$var wire 32 C wd [31:0] $end
$var wire 1 ' we $end
$var wire 32 D rd2 [31:0] $end
$var wire 32 E rd1 [31:0] $end
$var integer 32 F i [31:0] $end
$upscope $end
$upscope $end
$upscope $end
$enddefinitions $end
$comment Show the parameter values. $end
$dumpall
$end
#0
$dumpvars
b100000 F
b101 E
b101 D
b0 C
b10 B
b1 A
b1100 @
b1 ?
b0 >
b0 =
b1100011 <
b1000001000011001100011 ;
b0 :
b101 9
b1 8
b101 7
b0 6
b101 5
b1 4
b0 3
02
11
b1100 0
b1100 /
b10 .
b1100 -
b0 ,
0+
0*
0)
b1100 (
0'
b1 &
b101 %
b10 $
b101 #
b1000001000011001100011 "
0!
$end
#5000
bx C
bx 5
bx 7
bx 0
bx 3
bx :
bx %
bx 9
bx E
bx #
bx D
01
b0 4
b0 8
b0 ?
bx &
bx A
bx $
bx B
bx (
bx @
bx .
bx -
bx0 /
bx <
bx >
bx =
bx "
bx ;
b1100 6
1!
#10000
0!
#15000
b10000 6
1!
#20000
0!
#25000
b10100 6
1!
#30000
0!
#35000
b11000 6
1!
#40000
0!
#45000
b11100 6
1!
#50000
0!
#55000
b100000 6
1!
#60000
0!
#65000
b100100 6
1!
#70000
0!
#75000
b101000 6
1!
#80000
0!
#85000
b101100 6
1!
#90000
0!
#95000
b110000 6
1!
